chess
8
0 a1 1
0 a2 0
1 a7 0
1 a8 1
0 b2 0
1 b7 0
0 c2 0
0 c3 2
1 c6 2
1 c7 0
0 d2 3
0 d3 4
0 d4 0
1 d5 0
1 d6 4
1 d7 3
0 e1 5
0 e2 0
1 e7 0
1 e8 5
0 f1 3
0 f2 0
1 f7 0
1 f8 3
0 g1 2
0 g2 0
1 g7 0
1 g8 2
0 h1 1
0 h2 0
1 h7 0
1 h8 1
