1. Start a new game
2. Load a saved game
Enter a file to load from:
White turn 51:
[40m[31;1m8 [34;1m- [34;1m- [34;1m- [34;1m- [34;1m- [30;1m♚ [34;1m- [34;1m- 
[31;1m7 [34;1m- [34;1m- [34;1m- [34;1m- [34;1m- [34;1m- [34;1m- [34;1m- 
[31;1m6 [34;1m- [34;1m- [34;1m- [37;1m♘ [34;1m- [37;1m♔ [34;1m- [34;1m- 
[31;1m5 [34;1m- [34;1m- [34;1m- [34;1m- [34;1m- [34;1m- [34;1m- [34;1m- 
[31;1m4 [34;1m- [34;1m- [34;1m- [34;1m- [34;1m- [34;1m- [34;1m- [34;1m- 
[31;1m3 [34;1m- [34;1m- [34;1m- [34;1m- [34;1m- [34;1m- [34;1m- [34;1m- 
[31;1m2 [37;1m♗ [34;1m- [34;1m- [34;1m- [34;1m- [34;1m- [34;1m- [34;1m- 
[31;1m1 [34;1m- [34;1m- [34;1m- [34;1m- [34;1m- [34;1m- [34;1m- [34;1m- 
[31;1m  A B C D E F G H 
[39m[40mWhite turn 51:
Stalemate!
Game over. Goodbye!
[40m[31;1m8 [34;1m- [34;1m- [34;1m- [34;1m- [34;1m- [30;1m♚ [34;1m- [34;1m- 
[31;1m7 [34;1m- [34;1m- [34;1m- [34;1m- [34;1m- [37;1m♗ [34;1m- [34;1m- 
[31;1m6 [34;1m- [34;1m- [34;1m- [37;1m♘ [34;1m- [37;1m♔ [34;1m- [34;1m- 
[31;1m5 [34;1m- [34;1m- [34;1m- [34;1m- [34;1m- [34;1m- [34;1m- [34;1m- 
[31;1m4 [34;1m- [34;1m- [34;1m- [34;1m- [34;1m- [34;1m- [34;1m- [34;1m- 
[31;1m3 [34;1m- [34;1m- [34;1m- [34;1m- [34;1m- [34;1m- [34;1m- [34;1m- 
[31;1m2 [34;1m- [34;1m- [34;1m- [34;1m- [34;1m- [34;1m- [34;1m- [34;1m- 
[31;1m1 [34;1m- [34;1m- [34;1m- [34;1m- [34;1m- [34;1m- [34;1m- [34;1m- 
[31;1m  A B C D E F G H 
[39m[40m