1. Start a new game
2. Load a saved game
Enter a file to load from:
White turn 13:
[40m[31;1m[40m8 [43m  [46m  [43m[30;1m♚ [30;1m[46m  [43m[30;1m♝ [46m  [43m  [46m  
[31;1m[40m7 [46m[30;1m♟ [43m[30;1m♟ [46m[30;1m♟ [43m  [46m  [43m  [46m  [43m  
[31;1m[40m6 [43m  [46m  [43m  [46m[37;1m♙ [43m  [46m  [43m[37;1m♙ [46m  
[31;1m[40m5 [46m[30;1m♜ [43m  [46m  [43m  [46m  [43m  [46m  [43m  
[31;1m[40m4 [43m  [46m  [43m  [46m  [43m[37;1m♗ [46m  [43m  [46m  
[31;1m[40m3 [46m  [43m  [46m  [43m  [46m  [43m  [46m  [43m  
[31;1m[40m2 [43m  [46m  [43m  [46m  [43m  [46m[37;1m♙ [43m  [46m[37;1m♙ 
[31;1m[40m1 [46m  [43m  [46m  [43m  [46m  [43m[37;1m♖ [46m[37;1m♔ [37;1m[43m  
[31;1m[40m  A B C D E F G H 
[39mWhite turn 13:
White checks!
[40m[31;1m[40m8 [43m  [46m  [43m[30;1m[31m♚ [30;1m[46m  [43m[30;1m♝ [46m  [43m  [46m  
[31;1m[40m7 [46m[30;1m♟ [43m[30;1m♟ [46m[30;1m♟ [43m  [46m  [43m  [46m  [43m  
[31;1m[40m6 [43m  [46m  [43m  [46m[37;1m♙ [43m  [46m  [43m[37;1m♙ [46m  
[31;1m[40m5 [46m[30;1m♜ [43m  [46m  [43m  [46m  [43m[37;1m♗ [46m  [43m  
[31;1m[40m4 [43m  [46m  [43m  [46m  [43m  [46m  [43m  [46m  
[31;1m[40m3 [46m  [43m  [46m  [43m  [46m  [43m  [46m  [43m  
[31;1m[40m2 [43m  [46m  [43m  [46m  [43m  [46m[37;1m♙ [43m  [46m[37;1m♙ 
[31;1m[40m1 [46m  [43m  [46m  [43m  [46m  [43m[37;1m♖ [46m[37;1m♔ [37;1m[43m  
[31;1m[40m  A B C D E F G H 
[39mBlack turn 14:
[40m[31;1m[40m8 [43m  [46m  [43m[30;1m♚ [30;1m[46m  [43m  [46m  [43m  [46m  
[31;1m[40m7 [46m[30;1m♟ [43m[30;1m♟ [46m[30;1m♟ [43m[30;1m♝ [46m  [43m  [46m  [43m  
[31;1m[40m6 [43m  [46m  [43m  [46m[37;1m♙ [43m  [46m  [43m[37;1m♙ [46m  
[31;1m[40m5 [46m[30;1m♜ [43m  [46m  [43m  [46m  [43m[37;1m♗ [46m  [43m  
[31;1m[40m4 [43m  [46m  [43m  [46m  [43m  [46m  [43m  [46m  
[31;1m[40m3 [46m  [43m  [46m  [43m  [46m  [43m  [46m  [43m  
[31;1m[40m2 [43m  [46m  [43m  [46m  [43m  [46m[37;1m♙ [43m  [46m[37;1m♙ 
[31;1m[40m1 [46m  [43m  [46m  [43m  [46m  [43m[37;1m♖ [46m[37;1m♔ [37;1m[43m  
[31;1m[40m  A B C D E F G H 
[39mWhite turn 15:
[40m[31;1m[40m8 [43m  [46m  [43m[30;1m♚ [30;1m[46m  [43m  [46m  [43m  [46m  
[31;1m[40m7 [46m[30;1m♟ [43m[30;1m♟ [46m[30;1m♟ [43m[30;1m♝ [46m  [43m  [46m[37;1m♙ [43m  
[31;1m[40m6 [43m  [46m  [43m  [46m[37;1m♙ [43m  [46m  [43m  [46m  
[31;1m[40m5 [46m[30;1m♜ [43m  [46m  [43m  [46m  [43m[37;1m♗ [46m  [43m  
[31;1m[40m4 [43m  [46m  [43m  [46m  [43m  [46m  [43m  [46m  
[31;1m[40m3 [46m  [43m  [46m  [43m  [46m  [43m  [46m  [43m  
[31;1m[40m2 [43m  [46m  [43m  [46m  [43m  [46m[37;1m♙ [43m  [46m[37;1m♙ 
[31;1m[40m1 [46m  [43m  [46m  [43m  [46m  [43m[37;1m♖ [46m[37;1m♔ [37;1m[43m  
[31;1m[40m  A B C D E F G H 
[39mBlack turn 16:
Black captures a piece.
[40m[31;1m[40m8 [43m  [46m  [43m[30;1m♚ [30;1m[46m  [43m  [46m  [43m  [46m  
[31;1m[40m7 [46m[30;1m♟ [43m[30;1m♟ [46m[30;1m♟ [43m  [46m  [43m  [46m[37;1m♙ [43m  
[31;1m[40m6 [43m  [46m  [43m  [46m[37;1m♙ [43m  [46m  [43m  [46m  
[31;1m[40m5 [46m[30;1m♜ [43m  [46m  [43m  [46m  [43m[30;1m♝ [46m  [43m  
[31;1m[40m4 [43m  [46m  [43m  [46m  [43m  [46m  [43m  [46m  
[31;1m[40m3 [46m  [43m  [46m  [43m  [46m  [43m  [46m  [43m  
[31;1m[40m2 [43m  [46m  [43m  [46m  [43m  [46m[37;1m♙ [43m  [46m[37;1m♙ 
[31;1m[40m1 [46m  [43m  [46m  [43m  [46m  [43m[37;1m♖ [46m[37;1m♔ [37;1m[43m  
[31;1m[40m  A B C D E F G H 
[39mWhite turn 17:
White checks!
[40m[31;1m[40m8 [43m  [46m  [43m[30;1m[31m♚ [30;1m[46m  [43m  [46m  [43m[37;1m♕ [46m  
[31;1m[40m7 [46m[30;1m♟ [43m[30;1m♟ [46m[30;1m♟ [43m  [46m  [43m  [46m  [43m  
[31;1m[40m6 [43m  [46m  [43m  [46m[37;1m♙ [43m  [46m  [43m  [46m  
[31;1m[40m5 [46m[30;1m♜ [43m  [46m  [43m  [46m  [43m[30;1m♝ [46m  [43m  
[31;1m[40m4 [43m  [46m  [43m  [46m  [43m  [46m  [43m  [46m  
[31;1m[40m3 [46m  [43m  [46m  [43m  [46m  [43m  [46m  [43m  
[31;1m[40m2 [43m  [46m  [43m  [46m  [43m  [46m[37;1m♙ [43m  [46m[37;1m♙ 
[31;1m[40m1 [46m  [43m  [46m  [43m  [46m  [43m[37;1m♖ [46m[37;1m♔ [37;1m[43m  
[31;1m[40m  A B C D E F G H 
[39mBlack turn 18:
Error: your king is checked.
[40m[31;1m[40m8 [43m  [46m  [43m[30;1m[31m♚ [30;1m[46m  [43m  [46m  [43m[37;1m♕ [46m  
[31;1m[40m7 [46m[30;1m♟ [43m[30;1m♟ [46m[30;1m♟ [43m  [46m  [43m  [46m  [43m  
[31;1m[40m6 [43m  [46m  [43m  [46m[37;1m♙ [43m  [46m  [43m  [46m  
[31;1m[40m5 [46m[30;1m♜ [43m  [46m  [43m  [46m  [43m[30;1m♝ [46m  [43m  
[31;1m[40m4 [43m  [46m  [43m  [46m  [43m  [46m  [43m  [46m  
[31;1m[40m3 [46m  [43m  [46m  [43m  [46m  [43m  [46m  [43m  
[31;1m[40m2 [43m  [46m  [43m  [46m  [43m  [46m[37;1m♙ [43m  [46m[37;1m♙ 
[31;1m[40m1 [46m  [43m  [46m  [43m  [46m  [43m[37;1m♖ [46m[37;1m♔ [37;1m[43m  
[31;1m[40m  A B C D E F G H 
[39mBlack turn 18:
Error: your king is checked.
[40m[31;1m[40m8 [43m  [46m  [43m[30;1m[31m♚ [30;1m[46m  [43m  [46m  [43m[37;1m♕ [46m  
[31;1m[40m7 [46m[30;1m♟ [43m[30;1m♟ [46m[30;1m♟ [43m  [46m  [43m  [46m  [43m  
[31;1m[40m6 [43m  [46m  [43m  [46m[37;1m♙ [43m  [46m  [43m  [46m  
[31;1m[40m5 [46m[30;1m♜ [43m  [46m  [43m  [46m  [43m[30;1m♝ [46m  [43m  
[31;1m[40m4 [43m  [46m  [43m  [46m  [43m  [46m  [43m  [46m  
[31;1m[40m3 [46m  [43m  [46m  [43m  [46m  [43m  [46m  [43m  
[31;1m[40m2 [43m  [46m  [43m  [46m  [43m  [46m[37;1m♙ [43m  [46m[37;1m♙ 
[31;1m[40m1 [46m  [43m  [46m  [43m  [46m  [43m[37;1m♖ [46m[37;1m♔ [37;1m[43m  
[31;1m[40m  A B C D E F G H 
[39mBlack turn 18:
[40m[31;1m[40m8 [43m  [46m  [43m  [46m  [43m  [46m  [43m[37;1m♕ [46m  
[31;1m[40m7 [46m[30;1m♟ [43m[30;1m♟ [46m[30;1m♟ [43m[30;1m♚ [30;1m[46m  [43m  [46m  [43m  
[31;1m[40m6 [43m  [46m  [43m  [46m[37;1m♙ [43m  [46m  [43m  [46m  
[31;1m[40m5 [46m[30;1m♜ [43m  [46m  [43m  [46m  [43m[30;1m♝ [46m  [43m  
[31;1m[40m4 [43m  [46m  [43m  [46m  [43m  [46m  [43m  [46m  
[31;1m[40m3 [46m  [43m  [46m  [43m  [46m  [43m  [46m  [43m  
[31;1m[40m2 [43m  [46m  [43m  [46m  [43m  [46m[37;1m♙ [43m  [46m[37;1m♙ 
[31;1m[40m1 [46m  [43m  [46m  [43m  [46m  [43m[37;1m♖ [46m[37;1m♔ [37;1m[43m  
[31;1m[40m  A B C D E F G H 
[39mWhite turn 19:
[40m[31;1m[40m8 [43m  [46m  [43m  [46m  [43m  [46m  [43m[37;1m♕ [46m  
[31;1m[40m7 [46m[30;1m♟ [43m[30;1m♟ [46m[30;1m♟ [43m[30;1m♚ [30;1m[46m  [43m  [46m  [43m  
[31;1m[40m6 [43m  [46m  [43m  [46m[37;1m♙ [43m  [46m  [43m  [46m  
[31;1m[40m5 [46m[30;1m♜ [43m  [46m  [43m  [46m  [43m[30;1m♝ [46m  [43m  
[31;1m[40m4 [43m  [46m  [43m  [46m  [43m  [46m  [43m  [46m  
[31;1m[40m3 [46m  [43m  [46m  [43m  [46m  [43m  [46m  [43m  
[31;1m[40m2 [43m  [46m  [43m  [46m  [43m  [46m[37;1m♙ [43m  [46m[37;1m♙ 
[31;1m[40m1 [46m  [43m  [46m  [43m  [46m  [43m[37;1m♖ [46m[37;1m♔ [37;1m[43m  
[31;1m[40m  A B C D E F G H 
[39m